^D:\PROJEKTY\ADVENT-OF-CODE\2022\01\SRC\01.CPP
/c /I"D:\PROJEKTY\ADVENT-OF-CODE\2022\01" /I"D:\PROJEKTY\ADVENT-OF-CODE\2022\01\HEADERS" /I"D:\PROJEKTY\ADVENT-OF-CODE\2022\01\SRC" /ZI /JMC /nologo /W3 /WX- /diagnostics:column /sdl /Od /D _DEBUG /D _CONSOLE /D _UNICODE /D UNICODE /Gm- /EHsc /RTC1 /MDd /GS /fp:precise /Zc:wchar_t /Zc:forScope /Zc:inline /permissive- /Fo"X64\DEBUG\\" /Fd"X64\DEBUG\VC143.PDB" /external:W3 /Gd /TP /FC D:\PROJEKTY\ADVENT-OF-CODE\2022\01\SRC\01.CPP
^D:\PROJEKTY\ADVENT-OF-CODE\2022\02\SRC\02.CPP
/c /I"D:\PROJEKTY\ADVENT-OF-CODE\2022\02" /I"D:\PROJEKTY\ADVENT-OF-CODE\2022\02\SRC" /I"D:\PROJEKTY\ADVENT-OF-CODE\2022\02\INCLUDE" /ZI /JMC /nologo /W3 /WX- /diagnostics:column /sdl /Od /D _DEBUG /D _CONSOLE /D _UNICODE /D UNICODE /Gm- /EHsc /RTC1 /MDd /GS /fp:precise /Zc:wchar_t /Zc:forScope /Zc:inline /permissive- /Fo"X64\DEBUG\\" /Fd"X64\DEBUG\VC143.PDB" /external:W3 /Gd /TP /FC D:\PROJEKTY\ADVENT-OF-CODE\2022\02\SRC\02.CPP
^D:\PROJEKTY\ADVENT-OF-CODE\2022\03\SRC\02.CPP
/c /I"D:\PROJEKTY\ADVENT-OF-CODE\2022\02" /I"D:\PROJEKTY\ADVENT-OF-CODE\2022\02\SRC" /I"D:\PROJEKTY\ADVENT-OF-CODE\2022\02\INCLUDE" /ZI /JMC /nologo /W3 /WX- /diagnostics:column /sdl /Od /D _DEBUG /D _CONSOLE /D _UNICODE /D UNICODE /Gm- /EHsc /RTC1 /MDd /GS /fp:precise /Zc:wchar_t /Zc:forScope /Zc:inline /permissive- /Fo"X64\DEBUG\\" /Fd"X64\DEBUG\VC143.PDB" /external:W3 /Gd /TP /FC D:\PROJEKTY\ADVENT-OF-CODE\2022\03\SRC\02.CPP
^D:\PROJEKTY\ADVENT-OF-CODE\2022\03\SRC\03.CPP
/c /I"D:\PROJEKTY\ADVENT-OF-CODE\2022\03" /I"D:\PROJEKTY\ADVENT-OF-CODE\2022\03\SRC" /I"D:\PROJEKTY\ADVENT-OF-CODE\2022\03\INCLUDE" /ZI /JMC /nologo /W3 /WX- /diagnostics:column /sdl /Od /D _DEBUG /D _CONSOLE /D _UNICODE /D UNICODE /Gm- /EHsc /RTC1 /MDd /GS /fp:precise /Zc:wchar_t /Zc:forScope /Zc:inline /permissive- /Fo"X64\DEBUG\\" /Fd"X64\DEBUG\VC143.PDB" /external:W3 /Gd /TP /FC D:\PROJEKTY\ADVENT-OF-CODE\2022\03\SRC\03.CPP
