^D:\PROJEKTY\ADVENT-OF-CODE\2022\05\SRC\05.CPP
/c /I"D:\PROJEKTY\ADVENT-OF-CODE\2022\05" /I"D:\PROJEKTY\ADVENT-OF-CODE\2022\05\SRC" /I"D:\PROJEKTY\ADVENT-OF-CODE\2022\05\INCLUDE" /ZI /JMC /nologo /W3 /WX- /diagnostics:column /sdl /Od /D _DEBUG /D _CONSOLE /D _UNICODE /D UNICODE /Gm- /EHsc /RTC1 /MDd /GS /fp:precise /Zc:wchar_t /Zc:forScope /Zc:inline /permissive- /Fo"X64\DEBUG\\" /Fd"X64\DEBUG\VC143.PDB" /external:W3 /Gd /TP /FC D:\PROJEKTY\ADVENT-OF-CODE\2022\05\SRC\05.CPP
^D:\PROJEKTY\ADVENT-OF-CODE\2022\05\SRC\PRINTER.CPP
/c /I"D:\PROJEKTY\ADVENT-OF-CODE\2022\05" /I"D:\PROJEKTY\ADVENT-OF-CODE\2022\05\SRC" /I"D:\PROJEKTY\ADVENT-OF-CODE\2022\05\INCLUDE" /ZI /JMC /nologo /W3 /WX- /diagnostics:column /sdl /Od /D _DEBUG /D _CONSOLE /D _UNICODE /D UNICODE /Gm- /EHsc /RTC1 /MDd /GS /fp:precise /Zc:wchar_t /Zc:forScope /Zc:inline /permissive- /Fo"X64\DEBUG\\" /Fd"X64\DEBUG\VC143.PDB" /external:W3 /Gd /TP /FC D:\PROJEKTY\ADVENT-OF-CODE\2022\05\SRC\PRINTER.CPP
