^D:\PROJEKTY\ADVENT-OF-CODE\2022\02\X64\DEBUG\02.OBJ|D:\PROJEKTY\ADVENT-OF-CODE\2022\02\X64\DEBUG\ATOMIC_3ICTO6XN3ZABRF8V.OBJ|D:\PROJEKTY\ADVENT-OF-CODE\2022\02\X64\DEBUG\BIT_6U4LWX8ALGBTB230.OBJ|D:\PROJEKTY\ADVENT-OF-CODE\2022\02\X64\DEBUG\CCTYPE_8QGNJS9XFKWBPPE1.OBJ|D:\PROJEKTY\ADVENT-OF-CODE\2022\02\X64\DEBUG\CERRNO_KOPBSWRX8ZIEUGDI.OBJ|D:\PROJEKTY\ADVENT-OF-CODE\2022\02\X64\DEBUG\CFLOAT_MMA0WN2O1E3DWI7I.OBJ|D:\PROJEKTY\ADVENT-OF-CODE\2022\02\X64\DEBUG\CLIMITS_A4CMGE0SWL05G12J.OBJ|D:\PROJEKTY\ADVENT-OF-CODE\2022\02\X64\DEBUG\CLOCALE_FMOXYXMUKQWG21MS.OBJ|D:\PROJEKTY\ADVENT-OF-CODE\2022\02\X64\DEBUG\CMATH_7TX8SGE56MC3Y2QW.OBJ|D:\PROJEKTY\ADVENT-OF-CODE\2022\02\X64\DEBUG\COMPARE_ON2A8X7UR622M47P.OBJ|D:\PROJEKTY\ADVENT-OF-CODE\2022\02\X64\DEBUG\CONCEPTS_IMGKPI8CIO51N1GT.OBJ|D:\PROJEKTY\ADVENT-OF-CODE\2022\02\X64\DEBUG\CSTDDEF_TEI1VG36VJKJO42S.OBJ|D:\PROJEKTY\ADVENT-OF-CODE\2022\02\X64\DEBUG\CSTDINT_KHHPUXYFS5GEVHA5.OBJ|D:\PROJEKTY\ADVENT-OF-CODE\2022\02\X64\DEBUG\CSTDIO_HM61Q3HFPUXIDR34.OBJ|D:\PROJEKTY\ADVENT-OF-CODE\2022\02\X64\DEBUG\CSTDLIB_EBDZVEJLEIU3KWQT.OBJ|D:\PROJEKTY\ADVENT-OF-CODE\2022\02\X64\DEBUG\CSTRING_ZE6I35TQ1KQWDXJE.OBJ|D:\PROJEKTY\ADVENT-OF-CODE\2022\02\X64\DEBUG\CTIME_1UXK3EZ3IX1X5ONC.OBJ|D:\PROJEKTY\ADVENT-OF-CODE\2022\02\X64\DEBUG\CWCHAR_33A631V622983823.OBJ|D:\PROJEKTY\ADVENT-OF-CODE\2022\02\X64\DEBUG\EXCEPTION_U0SC3UUQ7VZLU4SY.OBJ|D:\PROJEKTY\ADVENT-OF-CODE\2022\02\X64\DEBUG\FSTREAM_ENW5E22COHE2LTAP.OBJ|D:\PROJEKTY\ADVENT-OF-CODE\2022\02\X64\DEBUG\INITIALIZER_LIST_NESOFCD4AB9X06HW.OBJ|D:\PROJEKTY\ADVENT-OF-CODE\2022\02\X64\DEBUG\IOSFWD_TF5AD4KHQN06O7Q8.OBJ|D:\PROJEKTY\ADVENT-OF-CODE\2022\02\X64\DEBUG\IOSTREAM_FWU8LRUI7POJ9GC2.OBJ|D:\PROJEKTY\ADVENT-OF-CODE\2022\02\X64\DEBUG\IOS_4WTJJGUILZ8EUTV3.OBJ|D:\PROJEKTY\ADVENT-OF-CODE\2022\02\X64\DEBUG\ISTREAM_QFW9VUWLXT0MVDDN.OBJ|D:\PROJEKTY\ADVENT-OF-CODE\2022\02\X64\DEBUG\ITERATOR_O340XD16X8REVEXV.OBJ|D:\PROJEKTY\ADVENT-OF-CODE\2022\02\X64\DEBUG\LIMITS_4LDFBMKBK82NKJYH.OBJ|D:\PROJEKTY\ADVENT-OF-CODE\2022\02\X64\DEBUG\MEMORY_NS3X01EYCQWXCCZU.OBJ|D:\PROJEKTY\ADVENT-OF-CODE\2022\02\X64\DEBUG\NEW_VBLOA816P7ZXQ1A9.OBJ|D:\PROJEKTY\ADVENT-OF-CODE\2022\02\X64\DEBUG\OSTREAM_39T0D9D7MFG869V5.OBJ|D:\PROJEKTY\ADVENT-OF-CODE\2022\02\X64\DEBUG\STDEXCEPT_3E5657V58EXE7G8J.OBJ|D:\PROJEKTY\ADVENT-OF-CODE\2022\02\X64\DEBUG\STREAMBUF_R4RQ4K5EAL4E95PQ.OBJ|D:\PROJEKTY\ADVENT-OF-CODE\2022\02\X64\DEBUG\STRING_V7W0GM0JTT86K92L.OBJ|D:\PROJEKTY\ADVENT-OF-CODE\2022\02\X64\DEBUG\SYSTEM_ERROR_U842ZNVA10316KQ6.OBJ|D:\PROJEKTY\ADVENT-OF-CODE\2022\02\X64\DEBUG\TUPLE_4A5YR4NZTV3O4PDN.OBJ|D:\PROJEKTY\ADVENT-OF-CODE\2022\02\X64\DEBUG\TYPEINFO_ILCL45Y4A35IM7AX.OBJ|D:\PROJEKTY\ADVENT-OF-CODE\2022\02\X64\DEBUG\TYPE_TRAITS_W3ZQTX71XTBX5BJD.OBJ|D:\PROJEKTY\ADVENT-OF-CODE\2022\02\X64\DEBUG\UTILITY_RNUP566HDZHUDTJO.OBJ|D:\PROJEKTY\ADVENT-OF-CODE\2022\02\X64\DEBUG\VECTOR_IQ586SOHCH1CCEWO.OBJ|D:\PROJEKTY\ADVENT-OF-CODE\2022\02\X64\DEBUG\XATOMIC.H_CBNOR2SN9N0SQCXK.OBJ|D:\PROJEKTY\ADVENT-OF-CODE\2022\02\X64\DEBUG\XATOMIC_WAIT.H_HR23PIFJGKO3NGHI.OBJ|D:\PROJEKTY\ADVENT-OF-CODE\2022\02\X64\DEBUG\XCALL_ONCE.H_2K6HPBN7VBSDM2QY.OBJ|D:\PROJEKTY\ADVENT-OF-CODE\2022\02\X64\DEBUG\XERRC.H_W6JNBNPUTPCK4XH1.OBJ|D:\PROJEKTY\ADVENT-OF-CODE\2022\02\X64\DEBUG\XFACET_2VZAKI57UJQL5Y6O.OBJ|D:\PROJEKTY\ADVENT-OF-CODE\2022\02\X64\DEBUG\XIOSBASE_BH207I218D2I40QO.OBJ|D:\PROJEKTY\ADVENT-OF-CODE\2022\02\X64\DEBUG\XLOCALE_PADC04C0H4276GQ7.OBJ|D:\PROJEKTY\ADVENT-OF-CODE\2022\02\X64\DEBUG\XLOCINFO_ZM3YM2OC3NSDWGU1.OBJ|D:\PROJEKTY\ADVENT-OF-CODE\2022\02\X64\DEBUG\XLOCNUM_SOYV95MIGPBXPACA.OBJ|D:\PROJEKTY\ADVENT-OF-CODE\2022\02\X64\DEBUG\XMEMORY_QZ6UZ19N3IPX1VVK.OBJ|D:\PROJEKTY\ADVENT-OF-CODE\2022\02\X64\DEBUG\XPOLYMORPHIC_ALLOCATOR.H_51RTCUEXDP4QMYVV.OBJ|D:\PROJEKTY\ADVENT-OF-CODE\2022\02\X64\DEBUG\XSTDDEF_M0DPPA1UMME04SXQ.OBJ|D:\PROJEKTY\ADVENT-OF-CODE\2022\02\X64\DEBUG\XSTRING_Z53JP0839EI0VN2V.OBJ|D:\PROJEKTY\ADVENT-OF-CODE\2022\02\X64\DEBUG\XTHREADS.H_LZR4S18WGD07J318.OBJ|D:\PROJEKTY\ADVENT-OF-CODE\2022\02\X64\DEBUG\XTIMEC.H_WSRVIS6T0RKREWDV.OBJ|D:\PROJEKTY\ADVENT-OF-CODE\2022\02\X64\DEBUG\XTR1COMMON_LCHH06YOXM2MZ1L1.OBJ|D:\PROJEKTY\ADVENT-OF-CODE\2022\02\X64\DEBUG\XUTILITY_7YAVEE9HHE2EZR13.OBJ|D:\PROJEKTY\ADVENT-OF-CODE\2022\02\X64\DEBUG\__MSVC_ITER_CORE.HPP_EV44KYB5087KSEJD.OBJ|D:\PROJEKTY\ADVENT-OF-CODE\2022\02\X64\DEBUG\__MSVC_SYSTEM_ERROR_ABI.HPP_F7DEGLLLAQ0XG2QS.OBJ|D:\PROJEKTY\ADVENT-OF-CODE\2022\02\X64\DEBUG\__MSVC_XLOCINFO_TYPES.HPP_9MG03MNLY5H7GJ72.OBJ
C:\PROGRAM FILES (X86)\WINDOWS KITS\10\LIB\10.0.22000.0\UM\X64\KERNEL32.LIB
C:\PROGRAM FILES (X86)\WINDOWS KITS\10\LIB\10.0.22000.0\UM\X64\USER32.LIB
C:\PROGRAM FILES (X86)\WINDOWS KITS\10\LIB\10.0.22000.0\UM\X64\GDI32.LIB
C:\PROGRAM FILES (X86)\WINDOWS KITS\10\LIB\10.0.22000.0\UM\X64\WINSPOOL.LIB
C:\PROGRAM FILES (X86)\WINDOWS KITS\10\LIB\10.0.22000.0\UM\X64\COMDLG32.LIB
C:\PROGRAM FILES (X86)\WINDOWS KITS\10\LIB\10.0.22000.0\UM\X64\ADVAPI32.LIB
C:\PROGRAM FILES (X86)\WINDOWS KITS\10\LIB\10.0.22000.0\UM\X64\SHELL32.LIB
C:\PROGRAM FILES (X86)\WINDOWS KITS\10\LIB\10.0.22000.0\UM\X64\OLE32.LIB
C:\PROGRAM FILES (X86)\WINDOWS KITS\10\LIB\10.0.22000.0\UM\X64\OLEAUT32.LIB
C:\PROGRAM FILES (X86)\WINDOWS KITS\10\LIB\10.0.22000.0\UM\X64\UUID.LIB
C:\PROGRAM FILES (X86)\WINDOWS KITS\10\LIB\10.0.22000.0\UM\X64\ODBC32.LIB
C:\PROGRAM FILES (X86)\WINDOWS KITS\10\LIB\10.0.22000.0\UM\X64\ODBCCP32.LIB
D:\PROJEKTY\ADVENT-OF-CODE\2022\02\X64\DEBUG\02.OBJ
D:\PROJEKTY\ADVENT-OF-CODE\2022\02\X64\DEBUG\IOSTREAM_FWU8LRUI7POJ9GC2.OBJ
D:\PROJEKTY\ADVENT-OF-CODE\2022\02\X64\DEBUG\FSTREAM_ENW5E22COHE2LTAP.OBJ
D:\PROJEKTY\ADVENT-OF-CODE\2022\02\X64\DEBUG\STRING_V7W0GM0JTT86K92L.OBJ
D:\PROJEKTY\ADVENT-OF-CODE\2022\02\X64\DEBUG\VECTOR_IQ586SOHCH1CCEWO.OBJ
D:\PROJEKTY\ADVENT-OF-CODE\2022\02\X64\DEBUG\ISTREAM_QFW9VUWLXT0MVDDN.OBJ
D:\PROJEKTY\ADVENT-OF-CODE\2022\02\X64\DEBUG\XSTRING_Z53JP0839EI0VN2V.OBJ
D:\PROJEKTY\ADVENT-OF-CODE\2022\02\X64\DEBUG\CCTYPE_8QGNJS9XFKWBPPE1.OBJ
D:\PROJEKTY\ADVENT-OF-CODE\2022\02\X64\DEBUG\XMEMORY_QZ6UZ19N3IPX1VVK.OBJ
D:\PROJEKTY\ADVENT-OF-CODE\2022\02\X64\DEBUG\XPOLYMORPHIC_ALLOCATOR.H_51RTCUEXDP4QMYVV.OBJ
D:\PROJEKTY\ADVENT-OF-CODE\2022\02\X64\DEBUG\OSTREAM_39T0D9D7MFG869V5.OBJ
D:\PROJEKTY\ADVENT-OF-CODE\2022\02\X64\DEBUG\IOSFWD_TF5AD4KHQN06O7Q8.OBJ
D:\PROJEKTY\ADVENT-OF-CODE\2022\02\X64\DEBUG\CSTDINT_KHHPUXYFS5GEVHA5.OBJ
D:\PROJEKTY\ADVENT-OF-CODE\2022\02\X64\DEBUG\CSTDLIB_EBDZVEJLEIU3KWQT.OBJ
D:\PROJEKTY\ADVENT-OF-CODE\2022\02\X64\DEBUG\LIMITS_4LDFBMKBK82NKJYH.OBJ
D:\PROJEKTY\ADVENT-OF-CODE\2022\02\X64\DEBUG\NEW_VBLOA816P7ZXQ1A9.OBJ
D:\PROJEKTY\ADVENT-OF-CODE\2022\02\X64\DEBUG\XATOMIC.H_CBNOR2SN9N0SQCXK.OBJ
D:\PROJEKTY\ADVENT-OF-CODE\2022\02\X64\DEBUG\XUTILITY_7YAVEE9HHE2EZR13.OBJ
D:\PROJEKTY\ADVENT-OF-CODE\2022\02\X64\DEBUG\TUPLE_4A5YR4NZTV3O4PDN.OBJ
D:\PROJEKTY\ADVENT-OF-CODE\2022\02\X64\DEBUG\TYPE_TRAITS_W3ZQTX71XTBX5BJD.OBJ
D:\PROJEKTY\ADVENT-OF-CODE\2022\02\X64\DEBUG\UTILITY_RNUP566HDZHUDTJO.OBJ
D:\PROJEKTY\ADVENT-OF-CODE\2022\02\X64\DEBUG\IOS_4WTJJGUILZ8EUTV3.OBJ
D:\PROJEKTY\ADVENT-OF-CODE\2022\02\X64\DEBUG\CSTDIO_HM61Q3HFPUXIDR34.OBJ
D:\PROJEKTY\ADVENT-OF-CODE\2022\02\X64\DEBUG\CSTRING_ZE6I35TQ1KQWDXJE.OBJ
D:\PROJEKTY\ADVENT-OF-CODE\2022\02\X64\DEBUG\CWCHAR_33A631V622983823.OBJ
D:\PROJEKTY\ADVENT-OF-CODE\2022\02\X64\DEBUG\XSTDDEF_M0DPPA1UMME04SXQ.OBJ
D:\PROJEKTY\ADVENT-OF-CODE\2022\02\X64\DEBUG\CFLOAT_MMA0WN2O1E3DWI7I.OBJ
D:\PROJEKTY\ADVENT-OF-CODE\2022\02\X64\DEBUG\CLIMITS_A4CMGE0SWL05G12J.OBJ
D:\PROJEKTY\ADVENT-OF-CODE\2022\02\X64\DEBUG\EXCEPTION_U0SC3UUQ7VZLU4SY.OBJ
D:\PROJEKTY\ADVENT-OF-CODE\2022\02\X64\DEBUG\__MSVC_ITER_CORE.HPP_EV44KYB5087KSEJD.OBJ
D:\PROJEKTY\ADVENT-OF-CODE\2022\02\X64\DEBUG\COMPARE_ON2A8X7UR622M47P.OBJ
D:\PROJEKTY\ADVENT-OF-CODE\2022\02\X64\DEBUG\CONCEPTS_IMGKPI8CIO51N1GT.OBJ
D:\PROJEKTY\ADVENT-OF-CODE\2022\02\X64\DEBUG\XLOCNUM_SOYV95MIGPBXPACA.OBJ
D:\PROJEKTY\ADVENT-OF-CODE\2022\02\X64\DEBUG\CSTDDEF_TEI1VG36VJKJO42S.OBJ
D:\PROJEKTY\ADVENT-OF-CODE\2022\02\X64\DEBUG\INITIALIZER_LIST_NESOFCD4AB9X06HW.OBJ
D:\PROJEKTY\ADVENT-OF-CODE\2022\02\X64\DEBUG\XTR1COMMON_LCHH06YOXM2MZ1L1.OBJ
D:\PROJEKTY\ADVENT-OF-CODE\2022\02\X64\DEBUG\BIT_6U4LWX8ALGBTB230.OBJ
D:\PROJEKTY\ADVENT-OF-CODE\2022\02\X64\DEBUG\CMATH_7TX8SGE56MC3Y2QW.OBJ
D:\PROJEKTY\ADVENT-OF-CODE\2022\02\X64\DEBUG\ITERATOR_O340XD16X8REVEXV.OBJ
D:\PROJEKTY\ADVENT-OF-CODE\2022\02\X64\DEBUG\STREAMBUF_R4RQ4K5EAL4E95PQ.OBJ
D:\PROJEKTY\ADVENT-OF-CODE\2022\02\X64\DEBUG\XIOSBASE_BH207I218D2I40QO.OBJ
D:\PROJEKTY\ADVENT-OF-CODE\2022\02\X64\DEBUG\SYSTEM_ERROR_U842ZNVA10316KQ6.OBJ
D:\PROJEKTY\ADVENT-OF-CODE\2022\02\X64\DEBUG\XLOCALE_PADC04C0H4276GQ7.OBJ
D:\PROJEKTY\ADVENT-OF-CODE\2022\02\X64\DEBUG\__MSVC_SYSTEM_ERROR_ABI.HPP_F7DEGLLLAQ0XG2QS.OBJ
D:\PROJEKTY\ADVENT-OF-CODE\2022\02\X64\DEBUG\CERRNO_KOPBSWRX8ZIEUGDI.OBJ
D:\PROJEKTY\ADVENT-OF-CODE\2022\02\X64\DEBUG\STDEXCEPT_3E5657V58EXE7G8J.OBJ
D:\PROJEKTY\ADVENT-OF-CODE\2022\02\X64\DEBUG\XCALL_ONCE.H_2K6HPBN7VBSDM2QY.OBJ
D:\PROJEKTY\ADVENT-OF-CODE\2022\02\X64\DEBUG\XERRC.H_W6JNBNPUTPCK4XH1.OBJ
D:\PROJEKTY\ADVENT-OF-CODE\2022\02\X64\DEBUG\ATOMIC_3ICTO6XN3ZABRF8V.OBJ
D:\PROJEKTY\ADVENT-OF-CODE\2022\02\X64\DEBUG\MEMORY_NS3X01EYCQWXCCZU.OBJ
D:\PROJEKTY\ADVENT-OF-CODE\2022\02\X64\DEBUG\TYPEINFO_ILCL45Y4A35IM7AX.OBJ
D:\PROJEKTY\ADVENT-OF-CODE\2022\02\X64\DEBUG\XFACET_2VZAKI57UJQL5Y6O.OBJ
D:\PROJEKTY\ADVENT-OF-CODE\2022\02\X64\DEBUG\XLOCINFO_ZM3YM2OC3NSDWGU1.OBJ
D:\PROJEKTY\ADVENT-OF-CODE\2022\02\X64\DEBUG\XATOMIC_WAIT.H_HR23PIFJGKO3NGHI.OBJ
D:\PROJEKTY\ADVENT-OF-CODE\2022\02\X64\DEBUG\XTHREADS.H_LZR4S18WGD07J318.OBJ
D:\PROJEKTY\ADVENT-OF-CODE\2022\02\X64\DEBUG\__MSVC_XLOCINFO_TYPES.HPP_9MG03MNLY5H7GJ72.OBJ
D:\PROJEKTY\ADVENT-OF-CODE\2022\02\X64\DEBUG\CLOCALE_FMOXYXMUKQWG21MS.OBJ
D:\PROJEKTY\ADVENT-OF-CODE\2022\02\X64\DEBUG\XTIMEC.H_WSRVIS6T0RKREWDV.OBJ
D:\PROJEKTY\ADVENT-OF-CODE\2022\02\X64\DEBUG\CTIME_1UXK3EZ3IX1X5ONC.OBJ
C:\WINDOWS\GLOBALIZATION\SORTING\SORTDEFAULT.NLS
C:\PROGRAM FILES\MICROSOFT VISUAL STUDIO\2022\COMMUNITY\VC\TOOLS\MSVC\14.34.31933\LIB\X64\MSVCPRTD.LIB
C:\PROGRAM FILES\MICROSOFT VISUAL STUDIO\2022\COMMUNITY\VC\TOOLS\MSVC\14.34.31933\LIB\X64\MSVCRTD.LIB
C:\PROGRAM FILES\MICROSOFT VISUAL STUDIO\2022\COMMUNITY\VC\TOOLS\MSVC\14.34.31933\LIB\X64\OLDNAMES.LIB
C:\PROGRAM FILES\MICROSOFT VISUAL STUDIO\2022\COMMUNITY\VC\TOOLS\MSVC\14.34.31933\LIB\X64\VCRUNTIMED.LIB
C:\PROGRAM FILES (X86)\WINDOWS KITS\10\LIB\10.0.22000.0\UCRT\X64\UCRTD.LIB
C:\PROGRAM FILES\MICROSOFT VISUAL STUDIO\2022\COMMUNITY\VC\TOOLS\MSVC\14.34.31933\BIN\HOSTX64\X64\CVTRES.EXE
C:\WINDOWS\SYSTEM32\TZRES.DLL
D:\PROJEKTY\ADVENT-OF-CODE\2022\02\X64\DEBUG\VC143.PDB
